[{
    "request": {
        "method": "GET",
        "url": "http:\/\/reqres.in\/api\/users",
        "headers": {
            "Host": "reqres.in",
            "Expect": null,
            "User-Agent": "Httpful\/0.2.20 (cURL\/7.35.0 PHP\/5.6.23-1+deprecated+dontuse+deb.sury.org~trusty+1 (Linux))",
            "Content-Type": "",
            "Accept": "*\/*; q=0.5, text\/plain; q=0.8, text\/html;level=3;",
            "Content-Length": "0"
        }
    },
    "response": {
        "status": {
            "http_version": "1.1",
            "code": "200",
            "message": "OK"
        },
        "headers": {
            "Server": "nginx\/1.6.2",
            "Date": "Sun, 04 Sep 2016 05:08:22 GMT",
            "Content-Type": "application\/json; charset=utf-8",
            "Content-Length": "446",
            "Connection": "keep-alive",
            "X-Powered-By": "Express",
            "Access-Control-Allow-Origin": "*",
            "ETag": "W\/\"1be-q96WkDv6JqfLvIPiRhzWJQ\""
        },
        "body": "{\"page\":1,\"per_page\":3,\"total\":12,\"total_pages\":4,\"data\":[{\"id\":1,\"first_name\":\"george\",\"last_name\":\"bluth\",\"avatar\":\"https:\/\/s3.amazonaws.com\/uifaces\/faces\/twitter\/calebogden\/128.jpg\"},{\"id\":2,\"first_name\":\"lucille\",\"last_name\":\"bluth\",\"avatar\":\"https:\/\/s3.amazonaws.com\/uifaces\/faces\/twitter\/josephstein\/128.jpg\"},{\"id\":3,\"first_name\":\"oscar\",\"last_name\":\"bluth\",\"avatar\":\"https:\/\/s3.amazonaws.com\/uifaces\/faces\/twitter\/olegpogodaev\/128.jpg\"}]}"
    }
}]